<svg xmlns="http://www.w3.org/2000/svg" width="227" height="89" viewBox="0 0 227 89">
  <defs>
    <style>
      .cls-1 {
        fill: #fff;
        fill-rule: evenodd;
      }
    </style>
  </defs>
  <path id="logo.svg" class="cls-1" d="M235.742,122.479H230.15c-1.585-.093-2.517-0.746-4.288-5.59L204.049,57.356c-0.559-1.491-.839-1.677-1.305-1.677-0.746,0-1.212,1.3-1.864,3.168l-19.016,56.273c-1.771,5.31-4.754,7.36-10.254,7.36h-1.584a0.895,0.895,0,1,0,0,1.77c2.516,0,4.94-.28,10.533-0.28,4.474,0,6.059.187,10.813,0.28a0.878,0.878,0,0,0,.932-0.932,0.858,0.858,0,0,0-.932-0.838h-3.449a5.127,5.127,0,0,1-2.385-.314,3.7,3.7,0,0,1-1.46-.915,3.854,3.854,0,0,1-.816-2.684c0-1.957.746-4.472,1.771-7.826,0.705-2.307,1.327-4.7,2.188-6.953,1.334-3.491,2.52-6.976,3.7-10.518q1.2-3.606,2.405-7.213,2.324-6.963,4.645-13.926,0.334-1.006.671-2.011l3.546,9.747,5.474,15.046c0.922,2.534,1.883,5.151,2.819,7.714l1.656,4.534,3.312,9.069a7.408,7.408,0,0,1,.717,1.964,6.832,6.832,0,0,1,.559,2.423c0,1.677-1.211,1.863-3.915,1.863h-5.686a0.878,0.878,0,0,0-.932.931c0,0.373.093,0.839,1.3,0.839,0.839,0,6.245-.28,14.076-0.28,6.245,0,8.669.187,14.168,0.28a0.934,0.934,0,0,0,.933-0.932A0.921,0.921,0,0,0,235.742,122.479Zm15-22.321-7.847,21.215c-0.52,1.346-.751,1.578-1.1,1.578a1,1,0,0,1-.866-0.835L228.753,92.452c-1.039-2.414-1.731-2.785-2.655-2.785h-3.462a0.494,0.494,0,0,1-.577-0.464,0.467,0.467,0,0,1,.577-0.418c3.347,0.046,4.963.139,8.771,0.139,4.732,0,6.636-.139,7.617-0.139a0.527,0.527,0,0,1,.635.418,0.553,0.553,0,0,1-.635.464h-2.193c-1.615,0-2.25.093-2.25,0.882a3.735,3.735,0,0,0,.346,1.207l9.175,23.536,6.059-16.526-2.6-6.313c-1.1-2.646-1.674-2.785-2.6-2.785h-2.077a0.552,0.552,0,0,1-.635-0.464,0.527,0.527,0,0,1,.635-0.418c3.346,0.046,3.519.139,7.386,0.139,4.731,0,7.5-.139,8.078-0.139,0.693,0,.808.186,0.808,0.371a0.553,0.553,0,0,1-.635.511H255.7c-1.673,0-2.424.093-2.424,0.928a3.83,3.83,0,0,0,.347,1.161l9.233,23.443,6.924-19.729a11.788,11.788,0,0,0,.923-3.853c0-1.346-.75-1.949-2.827-1.949h-3.116a0.553,0.553,0,0,1-.635-0.464,0.527,0.527,0,0,1,.635-0.418c2.943,0.046,3.577.139,6.347,0.139,3.4,0,4.617-.139,6.175-0.139a0.526,0.526,0,0,1,.634.418,0.552,0.552,0,0,1-.634.464h-0.808c-1.5,0-3.578,0-4.905,3.667L261.7,121.373c-0.4,1.207-.634,1.578-1.1,1.578a1.08,1.08,0,0,1-.808-0.835ZM323.487,60.7m3.578,2.81-17.7,57.86a0.466,0.466,0,1,1,0,.9c-3.467-.047-5-0.142-8.932-0.142-4.937,0-8.345.142-8.874,0.142-0.764,0-.823-0.237-0.823-0.425a0.5,0.5,0,0,1,.588-0.473h3.585c1.7,0,2.468-.095,2.468-0.946a2.915,2.915,0,0,0-.353-1.229l-4.29-9.455H279.751l-2.351,5.673a12.958,12.958,0,0,0-1.116,3.971c0,1.371.881,1.986,2.938,1.986H281.4a0.466,0.466,0,1,1,0,.9c-3-.047-4-0.142-6.816-0.142-3.526,0-5.054.142-6.641,0.142a0.563,0.563,0,0,1-.646-0.473,0.57,0.57,0,0,1,.646-0.425h1c3.467,0,5.348-1.04,6.464-3.735l11.989-28.554c0.411-.945.7-1.607,1.175-1.607,0.294,0,.47.095,0.823,0.851l13.751,30.208c1.116,2.459,1.7,2.789,2.7,2.837h3.526ZM285.98,94.8l-5.818,14.041h12.165Zm45.484,26.569a0.571,0.571,0,0,1,.647.425,0.564,0.564,0,0,1-.647.473c-2.938-.047-5.465-0.142-8.4-0.142-3.644,0-7.7.142-8.756,0.142a0.564,0.564,0,0,1-.647-0.473,0.571,0.571,0,0,1,.647-0.425h5.759V105.914l-8.11-13.852c-1.586-2.695-2.586-2.836-3.643-2.836H305.49a0.563,0.563,0,0,1-.646-0.473,0.536,0.536,0,0,1,.646-0.425c3.408,0.047,5,.142,8.932.142,4.761,0,6.524-.142,7.581-0.142a0.476,0.476,0,0,1,.588.425,0.5,0.5,0,0,1-.588.473h-2.057c-1.41,0-2.644,0-2.644.9a2.529,2.529,0,0,0,.529,1.229l7.757,13.284,5.7-10.4a7.186,7.186,0,0,0,1-3.168c0-1.513-.824-1.843-2.88-1.843h-1.176a0.539,0.539,0,0,1-.587-0.473,0.508,0.508,0,0,1,.587-0.425c3.056,0.047,2.939.142,5.759,0.142,3.468,0,5.054-.142,6.582-0.142a0.537,0.537,0,0,1,.647.425,0.563,0.563,0,0,1-.647.473h-1c-2.644,0-4.525.189-6.464,3.734l-7.228,12.953v15.459h5.582Zm-103.447,13.05v4.406H224.5V127.068h8.508v2.8h-4.992v1.92h3.825v2.64h-3.825Zm12.108,4.406-1.715-4.492h-1.132v4.492h-3.653V127.068h5.986a5.489,5.489,0,0,1,3.036.721,3.2,3.2,0,0,1,1.44,2.811,3.11,3.11,0,0,1-2.075,3.1l2.127,5.126h-4.014Zm-1.526-7.012c0.789,0,1.732-.12,1.732-1.132a1.074,1.074,0,0,0-.566-0.959,2.309,2.309,0,0,0-1.029-.155h-1.458v2.246H238.6Zm17.39,1.166c0,3.343-2.058,6.018-5.626,6.018s-5.626-2.675-5.626-6.018c0-3.514,2.042-6.086,5.626-6.086S255.989,129.469,255.989,132.983ZM248.6,133c0,1.132.12,3.309,1.766,3.309s1.767-2.177,1.767-3.309c0-1.148-.172-3.446-1.767-3.446S248.6,131.852,248.6,133Zm21.369,5.829h-3.361v-8.4H266.57l-2.144,8.4h-2.3l-2.213-8.4h-0.034v8.4h-2.71V127.068h4.717l1.681,6.24H263.6l1.612-6.24h4.751v11.761Zm12.706,0h-3.636V127.068h3.636v11.761Zm6.775,0h-3.431V129.9h-2.47v-2.829h8.319V129.9h-2.418v8.932Zm16.617-2.315h-3.138l-0.721,2.315h-2.933l3.654-11.761h3.807l3.688,11.761h-3.688Zm-0.617-2.571-0.961-3.412-0.96,3.412h1.921Zm14.149,4.886h-8.251V127.068h3.637v8.881H319.6v2.88Zm9.158,0H320.5V127.068h3.637v8.881h4.614v2.88Zm13.1,0h-3.43V129.9h-2.47v-2.829h8.318V129.9h-2.418v8.932Zm9.845,0-1.716-4.492h-1.132v4.492H345.2V127.068h5.987a5.489,5.489,0,0,1,3.036.721,3.2,3.2,0,0,1,1.441,2.811,3.111,3.111,0,0,1-2.076,3.1l2.127,5.126H351.7Zm-1.527-7.012c0.789,0,1.732-.12,1.732-1.132a1.072,1.072,0,0,0-.566-0.959,2.307,2.307,0,0,0-1.029-.155h-1.458v2.246h1.321Zm12.656,4.7H359.69l-0.72,2.315h-2.933l3.653-11.761H363.5l3.688,11.761H363.5Zm-0.617-2.571-0.961-3.412-0.961,3.412h1.922Zm10.773,4.886H369.3l-3.791-11.761H369.3l2.195,7.526,2.179-7.526h2.967Zm13.292,0h-8.834V127.068h8.834v2.709h-5.3v1.714h4.288v2.623h-4.288v1.9h5.3v2.812Zm9.723,0h-8.25V127.068h3.636v8.881H396v2.88ZM313.2,62.058l-3.7-4,3.442,0.244,2.9,1.784L313.6,50.008l2.557,0.044,9.6,10.339,17-.094L333.586,50l5.558,1.586,10.54,7.688L370.946,59.7s6.963,1.279,9.275,4.778c0,0,.175,2.08-26.856,4.321l-5.786,6.3-4.557,2.521,3.537-9.609-26.576-1.824-3.429,1.185-1.506.36,0.178-2.261-2.282-.67ZM180.7,119.183l1.051-1.3c0.672-.845,1.712-2.1,3.04-3.69q1-1.175,2.221-2.592c0.828-.927,1.7-1.945,2.676-3,1.922-2.134,4.162-4.481,6.667-6.981s5.319-5.114,8.4-7.758,6.449-5.3,10.073-7.863A120.89,120.89,0,0,1,226.448,78.7a87.467,87.467,0,0,1,12.942-5.716,155.38,155.38,0,0,1,26.819-6.553l3.228-.505c1.064-.149,2.1-0.31,3.158-0.444,2.1-.281,4.146-0.534,6.146-0.745,4-.433,7.781-0.741,11.278-0.954,7-.427,12.834-0.434,16.913-0.38,2.04,0.03,3.642.072,4.734,0.115l1.674,0.059-0.008.511-1.671.028c-1.089.014-2.687,0.056-4.719,0.13s-4.5.2-7.32,0.389-6,.476-9.461.84-7.2.844-11.133,1.452c-1.967.3-3.987,0.642-6.035,1.011-1.023.177-2.072,0.389-3.123,0.584l-3.16.628a152.1,152.1,0,0,0-25.965,7.44,125.726,125.726,0,0,0-12.337,5.737,84.324,84.324,0,0,0-11.1,7.083c-3.441,2.56-6.633,5.216-9.557,7.849s-5.59,5.239-7.964,7.728-4.5,4.826-6.317,6.951c-0.921,1.053-1.75,2.068-2.534,2.99l-2.1,2.581c-1.24,1.566-2.215,2.8-2.879,3.677l-1.018,1.326Z" transform="translate(-169 -50)"/>
</svg>
